…
``` r
attach(Collegecopy)


#I type-casted the "Yes" values in the Private column to 1s and the "No" values to 0
things<-ifelse(Collegecopy[,2]=="Yes",1,0)

#altered the College dataset, adding in the typecasted Private column
Collegecopy2<-Collegecopy
Collegecopy2$Private <- things
Collegecopy2
```

    ## # A tibble: 777 x 20
    ##    X1          Private  Apps Accept Enroll Top10perc Top25perc F.Undergrad
    ##    <chr>         <dbl> <int>  <int>  <int>     <int>     <int>       <int>
    ##  1 Abilene Ch…    1.00  1660   1232    721        23        52        2885
    ##  2 Adelphi Un…    1.00  2186   1924    512        16        29        2683
    ##  3 Adrian Col…    1.00  1428   1097    336        22        50        1036
    ##  4 Agnes Scot…    1.00   417    349    137        60        89         510
    ##  5 Alaska Pac…    1.00   193    146     55        16        44         249
    ##  6 Albertson …    1.00   587    479    158        38        62         678
    ##  7 Albertus M…    1.00   353    340    103        17        45         416
    ##  8 Albion Col…    1.00  1899   1720    489        37        68        1594
    ##  9 Albright C…    1.00  1038    839    227        30        63         973
    ## 10 Alderson-B…    1.00   582    498    172        21        44         799
    ## # ... with 767 more rows, and 12 more variables: P.Undergrad <int>,
    ## #   Outstate <int>, Room.Board <int>, Books <int>, Personal <int>,
    ## #   PhD <int>, Terminal <int>, S.F.Ratio <dbl>, perc.alumni <int>,
    ## #   Expend <int>, Grad.Rate <int>, acceptancerates <dbl>
…
